{
  "Hello": {
    "default": "Hello",
    "zh": "你好"
  },
  "SystemName": {
    "default": "Chino"
  },
  "AccountName": {
    "default": "Chino ID",
    "zh": "Chino账号"
  },
  "error1": {
    "default": "Error",
    "zh": "出错了"
  },
  "Admin": {
    "DashboardName": {
      "default": "Admin Dashboard",
      "zh": "管理仪表盘"
    }
  }
}
